{"count":20,"totalCount":34,"page":1,"totalPages":2,"lastItemIndex":20,"results":
[{"_id":"OY_FmDtw10XY","content":"Love is a serious mental disease.","author":"Plato","tags":["famous-quotes"],"authorSlug":"plato","length":33,"dateAdded":"2021-04-23","dateModified":"2021-04-23"}
,{"_id":"3RcVkUaPSYBI","content":"It is the mark of an educated mind to be able to entertain a thought without accepting it.","author":"Aristotle","tags":["famous-quotes"],"authorSlug":"aristotle","length":90,"dateAdded":"2021-04-08","dateModified":"2021-04-08"},
{"_id":"PdcCF7bmZfA","content":"The man who makes everything that leads to happiness depends upon himself, and not upon other men, has adopted the very best plan for living happily. This is the man of moderation, the man of manly character and of wisdom.","author":"Plato","tags":["wisdom"],"authorSlug":"plato","length":222,"dateAdded":"2021-03-28","dateModified":"2021-03-28"},
{"_id":"O5M65hYV4PUL","content":"Good actions give strength to ourselves and inspire good actions in others.","author":"Plato","tags":["famous-quotes"],"authorSlug":"plato","length":75,"dateAdded":"2021-02-27","dateModified":"2021-02-27"},
{"_id":"CeKZLrUeWIp","content":"Change in all things is sweet.","author":"Aristotle","tags":["famous-quotes","change","wisdom"],"authorSlug":"aristotle","length":30,"dateAdded":"2021-02-12","dateModified":"2022-07-04"},{"_id":"SjSXV2RqMnq3","content":"The greatest way to live with honor in this world is to be what we pretend to be.","author":"Socrates","tags":["famous-quotes"],"authorSlug":"socrates","length":81,"dateAdded":"2021-01-20","dateModified":"2021-01-20"},
{"_id":"UyHlTZCE77","content":"Well begun is half done.","author":"Aristotle","tags":["famous-quotes"],"authorSlug":"aristotle","length":24,"dateAdded":"2021-01-19","dateModified":"2021-01-19"},
{"_id":"kTmtHqeUMESD","content":"In all things of nature there is something of the marvelous.","author":"Aristotle","tags":["famous-quotes"],"authorSlug":"aristotle","length":60,"dateAdded":"2020-12-17","dateModified":"2020-12-17"},
{"_id":"PyTByAKIPh","content":"Cunning... is but the low mimic of wisdom.","author":"Plato","tags":["wisdom"],"authorSlug":"plato","length":42,"dateAdded":"2020-10-29","dateModified":"2020-10-29"},{"_id":"7jbd4NKNu_lE","content":"Happiness depends upon ourselves.","author":"Aristotle","tags":["famous-quotes"],"authorSlug":"aristotle","length":33,"dateAdded":"2020-10-14","dateModified":"2020-10-14"},{"_id":"LC_TwYzpCr","content":"A friend to all is a friend to none.","author":"Aristotle","tags":["friendship"],"authorSlug":"aristotle","length":36,"dateAdded":"2020-09-29","dateModified":"2020-09-29"},{"_id":"Hv_qMJFVRTO","content":"A good decision is based on knowledge and not on numbers.","author":"Plato","tags":["famous-quotes"],"authorSlug":"plato","length":57,"dateAdded":"2020-09-09","dateModified":"2020-09-09"},{"_id":"yt71V7jtBU","content":"Knowledge without justice ought to be called cunning rather than wisdom.","author":"Plato","tags":["wisdom"],"authorSlug":"plato","length":72,"dateAdded":"2020-09-09","dateModified":"2020-09-09"},{"_id":"9yI9oupgZp","content":"Wishing to be friends is quick work, but friendship is a slow ripening fruit.","author":"Aristotle","tags":["friendship"],"authorSlug":"aristotle","length":77,"dateAdded":"2020-08-27","dateModified":"2020-08-27"},{"_id":"5G-M_-ye7r","content":"He who hath many friends hath none.","author":"Aristotle","tags":["friendship"],"authorSlug":"aristotle","length":35,"dateAdded":"2020-08-27","dateModified":"2020-08-27"},{"_id":"wnvaQl9oO","content":"Quality is not an act; it is a habit.","author":"Aristotle","tags":["inspirational"],"authorSlug":"aristotle","length":37,"dateAdded":"2020-07-10","dateModified":"2021-06-17"},{"_id":"pvYXttE__hcb","content":"Criticism is something you can easily avoid by saying nothing, doing nothing, and being nothing.","author":"Aristotle","tags":["famous-quotes"],"authorSlug":"aristotle","length":96,"dateAdded":"2020-03-07","dateModified":"2020-03-07"},{"_id":"uQlwxvzPQVj","content":"Be as you wish to seem.","author":"Socrates","tags":["famous-quotes","wisdom"],"authorSlug":"socrates","length":23,"dateAdded":"2020-03-01","dateModified":"2020-03-01"},{"_id":"IvKYxO0VFt7","content":"Wisdom begins in wonder.","author":"Socrates","tags":["famous-quotes","wisdom"],"authorSlug":"socrates","length":24,"dateAdded":"2020-02-22","dateModified":"2020-02-22"},{"_id":"N4uElQP58Nb6","content":"The greatest way to live with honor in this world is to be what we pretend to be.","author":"Socrates","tags":["famous-quotes"],"authorSlug":"socrates","length":81,"dateAdded":"2020-01-26","dateModified":"2021-06-17"}]}